/*
WARNING: Do NOT edit the input and output ports in this file in a text
editor if you plan to continue editing the block that represents it in
the Block Editor! File corruption is VERY likely to occur.
*/
/*
Copyright (C) 2019  Intel Corporation. All rights reserved.
Your use of Intel Corporation's design tools, logic functions 
and other software and tools, and any partner logic 
functions, and any output files from any of the foregoing 
(including device programming or simulation files), and any 
associated documentation or information are expressly subject 
to the terms and conditions of the Intel Program License 
Subscription Agreement, the Intel Quartus Prime License Agreement,
the Intel FPGA IP License Agreement, or other applicable license
agreement, including, without limitation, that your use is for
the sole purpose of programming logic devices manufactured by
Intel and sold by Intel or its authorized distributors.  Please
refer to the applicable agreement for further details, at
https://fpgasoftware.intel.com/eula.
*/
(header "graphic" (version "1.4"))
(pin
	(input)
	(rect 40 320 208 336)
	(text "INPUT" (rect 125 0 153 10)(font "Arial" (font_size 6)))
	(text "clock" (rect 5 0 30 12)(font "Arial" ))
	(pt 168 8)
	(drawing
		(line (pt 84 12)(pt 109 12))
		(line (pt 84 4)(pt 109 4))
		(line (pt 113 8)(pt 168 8))
		(line (pt 84 12)(pt 84 4))
		(line (pt 109 4)(pt 113 8))
		(line (pt 109 12)(pt 113 8))
	)
	(text "VCC" (rect 128 7 148 17)(font "Arial" (font_size 6)))
)
(pin
	(output)
	(rect 1368 208 1544 224)
	(text "OUTPUT" (rect 1 0 39 10)(font "Arial" (font_size 6)))
	(text "sortie[5..0]" (rect 90 0 139 17)(font "Intel Clear" ))
	(pt 0 8)
	(drawing
		(line (pt 0 8)(pt 52 8))
		(line (pt 52 4)(pt 78 4))
		(line (pt 52 12)(pt 78 12))
		(line (pt 52 12)(pt 52 4))
		(line (pt 78 4)(pt 82 8))
		(line (pt 82 8)(pt 78 12))
		(line (pt 78 12)(pt 82 8))
	)
)
(pin
	(output)
	(rect 880 256 1056 272)
	(text "OUTPUT" (rect 1 0 39 10)(font "Arial" (font_size 6)))
	(text "pin_name1[2..0]" (rect 90 0 169 12)(font "Arial" ))
	(pt 0 8)
	(drawing
		(line (pt 0 8)(pt 52 8))
		(line (pt 52 4)(pt 78 4))
		(line (pt 52 12)(pt 78 12))
		(line (pt 52 12)(pt 52 4))
		(line (pt 78 4)(pt 82 8))
		(line (pt 82 8)(pt 78 12))
		(line (pt 78 12)(pt 82 8))
	)
)
(symbol
	(rect 1104 184 1288 264)
	(text "TP4_Decodeur" (rect 5 0 76 12)(font "Arial" ))
	(text "inst2" (rect 8 64 30 81)(font "Intel Clear" ))
	(port
		(pt 0 32)
		(input)
		(text "input[2..0]" (rect 0 0 49 12)(font "Arial" ))
		(text "input[2..0]" (rect 21 27 70 39)(font "Arial" ))
		(line (pt 0 32)(pt 16 32)(line_width 3))
	)
	(port
		(pt 184 32)
		(output)
		(text "output[5..0]" (rect 0 0 56 12)(font "Arial" ))
		(text "output[5..0]" (rect 116 27 172 39)(font "Arial" ))
		(line (pt 184 32)(pt 168 32)(line_width 3))
	)
	(drawing
		(rectangle (rect 16 16 168 64))
	)
)
(symbol
	(rect 544 144 760 256)
	(text "TP4_CompteurSimple" (rect 5 0 111 12)(font "Arial" ))
	(text "inst" (rect 8 96 25 108)(font "Arial" ))
	(port
		(pt 0 32)
		(input)
		(text "clk" (rect 0 0 14 12)(font "Arial" ))
		(text "clk" (rect 21 27 35 39)(font "Arial" ))
		(line (pt 0 32)(pt 16 32))
	)
	(port
		(pt 0 48)
		(input)
		(text "clk_enable" (rect 0 0 51 12)(font "Arial" ))
		(text "clk_enable" (rect 21 43 72 55)(font "Arial" ))
		(line (pt 0 48)(pt 16 48))
	)
	(port
		(pt 0 64)
		(input)
		(text "reset" (rect 0 0 24 12)(font "Arial" ))
		(text "reset" (rect 21 59 45 71)(font "Arial" ))
		(line (pt 0 64)(pt 16 64))
	)
	(port
		(pt 216 32)
		(output)
		(text "compt_sortie[2..0]" (rect 0 0 89 12)(font "Arial" ))
		(text "compt_sortie[2..0]" (rect 120 27 209 39)(font "Arial" ))
		(line (pt 216 32)(pt 200 32)(line_width 3))
	)
	(drawing
		(rectangle (rect 16 16 200 96))
	)
)
(symbol
	(rect 216 152 416 232)
	(text "TP4_DiviseurFrequence" (rect 5 0 123 12)(font "Arial" ))
	(text "inst4" (rect 8 64 30 81)(font "Intel Clear" ))
	(port
		(pt 0 32)
		(input)
		(text "clk50Mhz" (rect 0 0 44 12)(font "Arial" ))
		(text "clk50Mhz" (rect 21 27 65 39)(font "Arial" ))
		(line (pt 0 32)(pt 16 32))
	)
	(port
		(pt 200 32)
		(output)
		(text "clk_sortie[23..0]" (rect 0 0 79 12)(font "Arial" ))
		(text "clk_sortie[23..0]" (rect 113 27 192 39)(font "Arial" ))
		(line (pt 200 32)(pt 184 32)(line_width 3))
	)
	(port
		(pt 200 48)
		(output)
		(text "clk6hz" (rect 0 0 30 12)(font "Arial" ))
		(text "clk6hz" (rect 154 43 184 55)(font "Arial" ))
		(line (pt 200 48)(pt 184 48))
	)
	(drawing
		(rectangle (rect 16 16 184 64))
	)
)
(symbol
	(rect 912 312 1064 392)
	(text "TP4_ComparateurSimple" (rect 5 0 126 12)(font "Arial" ))
	(text "inst1" (rect 8 64 31 76)(font "Arial" ))
	(port
		(pt 0 32)
		(input)
		(text "b[2..0]" (rect 0 0 31 12)(font "Arial" ))
		(text "b[2..0]" (rect 21 27 52 39)(font "Arial" ))
		(line (pt 0 32)(pt 16 32)(line_width 3))
	)
	(port
		(pt 0 48)
		(input)
		(text "sens" (rect 0 0 23 12)(font "Arial" ))
		(text "sens" (rect 21 43 44 55)(font "Arial" ))
		(line (pt 0 48)(pt 16 48))
	)
	(port
		(pt 152 32)
		(output)
		(text "equals" (rect 0 0 31 12)(font "Arial" ))
		(text "equals" (rect 105 27 131 39)(font "Arial" ))
		(line (pt 152 32)(pt 136 32))
	)
	(drawing
		(rectangle (rect 16 16 136 64))
	)
)
(connector
	(pt 792 216)
	(pt 1104 216)
	(bus)
)
(connector
	(pt 1288 216)
	(pt 1368 216)
	(bus)
)
(connector
	(pt 1096 344)
	(pt 1064 344)
)
(connector
	(pt 1096 344)
	(pt 1096 504)
)
(connector
	(pt 1096 504)
	(pt 528 504)
)
(connector
	(pt 480 176)
	(pt 544 176)
)
(connector
	(pt 528 208)
	(pt 528 504)
)
(connector
	(pt 544 208)
	(pt 528 208)
)
(connector
	(pt 480 176)
	(pt 480 328)
)
(connector
	(pt 200 328)
	(pt 200 184)
)
(connector
	(pt 200 328)
	(pt 208 328)
)
(connector
	(pt 208 328)
	(pt 480 328)
)
(connector
	(pt 200 184)
	(pt 216 184)
)
(connector
	(pt 416 200)
	(pt 528 200)
)
(connector
	(pt 528 200)
	(pt 528 192)
)
(connector
	(pt 528 192)
	(pt 544 192)
)
(connector
	(pt 912 344)
	(pt 792 344)
	(bus)
)
(connector
	(pt 792 328)
	(pt 776 328)
	(bus)
)
(connector
	(pt 760 176)
	(pt 776 176)
	(bus)
)
(connector
	(pt 792 216)
	(pt 792 328)
	(bus)
)
(connector
	(pt 792 328)
	(pt 792 344)
	(bus)
)
(connector
	(pt 776 264)
	(pt 880 264)
	(bus)
)
(connector
	(pt 776 176)
	(pt 776 264)
	(bus)
)
(connector
	(pt 776 264)
	(pt 776 328)
	(bus)
)
(junction (pt 792 328))
(junction (pt 208 328))
(junction (pt 776 264))
