Info: Start Nativelink Simulation process

========= EDA Simulation Settings =====================

Sim Mode              :  Gate
Family                :  cycloneive
Quartus root          :  d:/fpga/quartus/bin64/
Quartus sim root      :  d:/fpga/quartus/eda/sim_lib
Simulation Tool       :  modelsim-altera
Simulation Language   :  vhdl
Version               :  93
Simulation Mode       :  GUI
Sim Output File       :  TP2_Demultiplexeur.vho
Sim SDF file          :  TP2_Demultiplexeur__vhdl.sdo
Sim dir               :  simulation\modelsim

=======================================================

Info: Starting NativeLink simulation with ModelSim-Altera software
Sourced NativeLink script d:/fpga/quartus/common/tcl/internal/nativelink/modelsim.tcl
Warning: File TP2_Demultiplexeur_run_msim_gate_vhdl.do already exists - backing up current file as TP2_Demultiplexeur_run_msim_gate_vhdl.do.bak9
Info: Spawning ModelSim-Altera Simulation software 
Info: NativeLink simulation flow was successful
