Flow report for TP4_bouton_rebond
Tue May 12 16:54:32 2020
Quartus Prime Version 19.1.0 Build 670 09/22/2019 SJ Lite Edition


---------------------
; Table of Contents ;
---------------------
  1. Legal Notice
  2. Flow Summary
  3. Flow Settings
  4. Flow Non-Default Global Settings
  5. Flow Elapsed Time
  6. Flow OS Summary
  7. Flow Log
  8. Flow Messages
  9. Flow Suppressed Messages



----------------
; Legal Notice ;
----------------
Copyright (C) 2019  Intel Corporation. All rights reserved.
Your use of Intel Corporation's design tools, logic functions 
and other software and tools, and any partner logic 
functions, and any output files from any of the foregoing 
(including device programming or simulation files), and any 
associated documentation or information are expressly subject 
to the terms and conditions of the Intel Program License 
Subscription Agreement, the Intel Quartus Prime License Agreement,
the Intel FPGA IP License Agreement, or other applicable license
agreement, including, without limitation, that your use is for
the sole purpose of programming logic devices manufactured by
Intel and sold by Intel or its authorized distributors.  Please
refer to the applicable agreement for further details, at
https://fpgasoftware.intel.com/eula.



+----------------------------------------------------------------------------------+
; Flow Summary                                                                     ;
+------------------------------------+---------------------------------------------+
; Flow Status                        ; Successful - Tue May 12 16:54:32 2020       ;
; Quartus Prime Version              ; 19.1.0 Build 670 09/22/2019 SJ Lite Edition ;
; Revision Name                      ; TP4_bouton_rebond                           ;
; Top-level Entity Name              ; TP4_CompteurSimple                          ;
; Family                             ; Cyclone IV E                                ;
; Device                             ; EP4CE115F29C7                               ;
; Timing Models                      ; Final                                       ;
; Total logic elements               ; 5 / 114,480 ( < 1 % )                       ;
;     Total combinational functions  ; 5 / 114,480 ( < 1 % )                       ;
;     Dedicated logic registers      ; 3 / 114,480 ( < 1 % )                       ;
; Total registers                    ; 3                                           ;
; Total pins                         ; 6 / 529 ( 1 % )                             ;
; Total virtual pins                 ; 0                                           ;
; Total memory bits                  ; 0 / 3,981,312 ( 0 % )                       ;
; Embedded Multiplier 9-bit elements ; 0 / 532 ( 0 % )                             ;
; Total PLLs                         ; 0 / 4 ( 0 % )                               ;
+------------------------------------+---------------------------------------------+


+-----------------------------------------+
; Flow Settings                           ;
+-------------------+---------------------+
; Option            ; Setting             ;
+-------------------+---------------------+
; Start date & time ; 05/12/2020 16:52:44 ;
; Main task         ; Compilation         ;
; Revision Name     ; TP4_bouton_rebond   ;
+-------------------+---------------------+


+-----------------------------------------------------------------------------------------------------------------------------------------------------------+
; Flow Non-Default Global Settings                                                                                                                          ;
+-------------------------------------+----------------------------------------+-------------------+--------------------+-----------------------------------+
; Assignment Name                     ; Value                                  ; Default Value     ; Entity Name        ; Section Id                        ;
+-------------------------------------+----------------------------------------+-------------------+--------------------+-----------------------------------+
; COMPILER_SIGNATURE_ID               ; 268525816340930.158929516411720        ; --                ; --                 ; --                                ;
; EDA_GENERATE_FUNCTIONAL_NETLIST     ; Off                                    ; --                ; --                 ; eda_board_design_timing           ;
; EDA_GENERATE_FUNCTIONAL_NETLIST     ; Off                                    ; --                ; --                 ; eda_board_design_boundary_scan    ;
; EDA_GENERATE_FUNCTIONAL_NETLIST     ; Off                                    ; --                ; --                 ; eda_board_design_signal_integrity ;
; EDA_GENERATE_FUNCTIONAL_NETLIST     ; Off                                    ; --                ; --                 ; eda_board_design_symbol           ;
; EDA_OUTPUT_DATA_FORMAT              ; Vhdl                                   ; --                ; --                 ; eda_simulation                    ;
; EDA_SIMULATION_TOOL                 ; ModelSim-Altera (VHDL)                 ; <None>            ; --                 ; --                                ;
; EDA_TIME_SCALE                      ; 1 ps                                   ; --                ; --                 ; eda_simulation                    ;
; MAX_CORE_JUNCTION_TEMP              ; 85                                     ; --                ; --                 ; --                                ;
; MIN_CORE_JUNCTION_TEMP              ; 0                                      ; --                ; --                 ; --                                ;
; NOMINAL_CORE_SUPPLY_VOLTAGE         ; 1.2V                                   ; --                ; --                 ; --                                ;
; PARTITION_COLOR                     ; -- (Not supported for targeted family) ; --                ; TP4_CompteurSimple ; Top                               ;
; PARTITION_FITTER_PRESERVATION_LEVEL ; -- (Not supported for targeted family) ; --                ; TP4_CompteurSimple ; Top                               ;
; PARTITION_NETLIST_TYPE              ; -- (Not supported for targeted family) ; --                ; TP4_CompteurSimple ; Top                               ;
; PROJECT_OUTPUT_DIRECTORY            ; output_files                           ; --                ; --                 ; --                                ;
; TOP_LEVEL_ENTITY                    ; TP4_CompteurSimple                     ; TP4_bouton_rebond ; --                 ; --                                ;
+-------------------------------------+----------------------------------------+-------------------+--------------------+-----------------------------------+


+--------------------------------------------------------------------------------------------------------------------------+
; Flow Elapsed Time                                                                                                        ;
+----------------------+--------------+-------------------------+---------------------+------------------------------------+
; Module Name          ; Elapsed Time ; Average Processors Used ; Peak Virtual Memory ; Total CPU Time (on all processors) ;
+----------------------+--------------+-------------------------+---------------------+------------------------------------+
; Analysis & Synthesis ; 00:00:38     ; 1.0                     ; 4818 MB             ; 00:01:19                           ;
; Fitter               ; 00:00:42     ; 1.0                     ; 5758 MB             ; 00:00:57                           ;
; Assembler            ; 00:00:09     ; 1.0                     ; 4699 MB             ; 00:00:09                           ;
; Timing Analyzer      ; 00:00:07     ; 1.0                     ; 4860 MB             ; 00:00:06                           ;
; EDA Netlist Writer   ; 00:00:03     ; 1.0                     ; 4654 MB             ; 00:00:02                           ;
; Total                ; 00:01:39     ; --                      ; --                  ; 00:02:33                           ;
+----------------------+--------------+-------------------------+---------------------+------------------------------------+


+------------------------------------------------------------------------------------+
; Flow OS Summary                                                                    ;
+----------------------+------------------+------------+------------+----------------+
; Module Name          ; Machine Hostname ; OS Name    ; OS Version ; Processor type ;
+----------------------+------------------+------------+------------+----------------+
; Analysis & Synthesis ; DESKTOP-SG9LIA4  ; Windows 10 ; 10.0       ; x86_64         ;
; Fitter               ; DESKTOP-SG9LIA4  ; Windows 10 ; 10.0       ; x86_64         ;
; Assembler            ; DESKTOP-SG9LIA4  ; Windows 10 ; 10.0       ; x86_64         ;
; Timing Analyzer      ; DESKTOP-SG9LIA4  ; Windows 10 ; 10.0       ; x86_64         ;
; EDA Netlist Writer   ; DESKTOP-SG9LIA4  ; Windows 10 ; 10.0       ; x86_64         ;
+----------------------+------------------+------------+------------+----------------+


------------
; Flow Log ;
------------
quartus_map --read_settings_files=on --write_settings_files=off TP4_bouton_rebond -c TP4_bouton_rebond
quartus_fit --read_settings_files=off --write_settings_files=off TP4_bouton_rebond -c TP4_bouton_rebond
quartus_asm --read_settings_files=off --write_settings_files=off TP4_bouton_rebond -c TP4_bouton_rebond
quartus_sta TP4_bouton_rebond -c TP4_bouton_rebond
quartus_eda --read_settings_files=off --write_settings_files=off TP4_bouton_rebond -c TP4_bouton_rebond



