/*
WARNING: Do NOT edit the input and output ports in this file in a text
editor if you plan to continue editing the block that represents it in
the Block Editor! File corruption is VERY likely to occur.
*/
/*
Copyright (C) 2019  Intel Corporation. All rights reserved.
Your use of Intel Corporation's design tools, logic functions 
and other software and tools, and any partner logic 
functions, and any output files from any of the foregoing 
(including device programming or simulation files), and any 
associated documentation or information are expressly subject 
to the terms and conditions of the Intel Program License 
Subscription Agreement, the Intel Quartus Prime License Agreement,
the Intel FPGA IP License Agreement, or other applicable license
agreement, including, without limitation, that your use is for
the sole purpose of programming logic devices manufactured by
Intel and sold by Intel or its authorized distributors.  Please
refer to the applicable agreement for further details, at
https://fpgasoftware.intel.com/eula.
*/
(header "graphic" (version "1.4"))
(pin
	(input)
	(rect 8 128 176 144)
	(text "INPUT" (rect 125 0 153 10)(font "Arial" (font_size 6)))
	(text "B" (rect 5 0 13 17)(font "Intel Clear" ))
	(pt 168 8)
	(drawing
		(line (pt 84 12)(pt 109 12))
		(line (pt 84 4)(pt 109 4))
		(line (pt 113 8)(pt 168 8))
		(line (pt 84 12)(pt 84 4))
		(line (pt 109 4)(pt 113 8))
		(line (pt 109 12)(pt 113 8))
	)
	(text "VCC" (rect 128 7 148 17)(font "Arial" (font_size 6)))
)
(pin
	(input)
	(rect 8 320 176 336)
	(text "INPUT" (rect 125 0 153 10)(font "Arial" (font_size 6)))
	(text "C" (rect 5 0 12 17)(font "Intel Clear" ))
	(pt 168 8)
	(drawing
		(line (pt 84 12)(pt 109 12))
		(line (pt 84 4)(pt 109 4))
		(line (pt 113 8)(pt 168 8))
		(line (pt 84 12)(pt 84 4))
		(line (pt 109 4)(pt 113 8))
		(line (pt 109 12)(pt 113 8))
	)
	(text "VCC" (rect 128 7 148 17)(font "Arial" (font_size 6)))
)
(pin
	(input)
	(rect 8 336 176 352)
	(text "INPUT" (rect 125 0 153 10)(font "Arial" (font_size 6)))
	(text "D" (rect 5 0 13 17)(font "Intel Clear" ))
	(pt 168 8)
	(drawing
		(line (pt 84 12)(pt 109 12))
		(line (pt 84 4)(pt 109 4))
		(line (pt 113 8)(pt 168 8))
		(line (pt 84 12)(pt 84 4))
		(line (pt 109 4)(pt 113 8))
		(line (pt 109 12)(pt 113 8))
	)
	(text "VCC" (rect 128 7 148 17)(font "Arial" (font_size 6)))
)
(pin
	(input)
	(rect -16 232 152 248)
	(text "INPUT" (rect 125 0 153 10)(font "Arial" (font_size 6)))
	(text "SEL0" (rect 5 0 29 17)(font "Intel Clear" ))
	(pt 168 8)
	(drawing
		(line (pt 84 12)(pt 109 12))
		(line (pt 84 4)(pt 109 4))
		(line (pt 113 8)(pt 168 8))
		(line (pt 84 12)(pt 84 4))
		(line (pt 109 4)(pt 113 8))
		(line (pt 109 12)(pt 113 8))
	)
	(text "VCC" (rect 128 7 148 17)(font "Arial" (font_size 6)))
)
(pin
	(input)
	(rect 216 464 384 480)
	(text "INPUT" (rect 125 0 153 10)(font "Arial" (font_size 6)))
	(text "SEL1" (rect 5 0 29 17)(font "Intel Clear" ))
	(pt 168 8)
	(drawing
		(line (pt 84 12)(pt 109 12))
		(line (pt 84 4)(pt 109 4))
		(line (pt 113 8)(pt 168 8))
		(line (pt 84 12)(pt 84 4))
		(line (pt 109 4)(pt 113 8))
		(line (pt 109 12)(pt 113 8))
	)
	(text "VCC" (rect 128 7 148 17)(font "Arial" (font_size 6)))
)
(pin
	(input)
	(rect 8 112 176 128)
	(text "INPUT" (rect 125 0 153 10)(font "Arial" (font_size 6)))
	(text "A" (rect 5 0 14 12)(font "Arial" ))
	(pt 168 8)
	(drawing
		(line (pt 84 12)(pt 109 12))
		(line (pt 84 4)(pt 109 4))
		(line (pt 113 8)(pt 168 8))
		(line (pt 84 12)(pt 84 4))
		(line (pt 109 4)(pt 113 8))
		(line (pt 109 12)(pt 113 8))
	)
	(text "VCC" (rect 128 7 148 17)(font "Arial" (font_size 6)))
)
(pin
	(output)
	(rect 592 216 768 232)
	(text "OUTPUT" (rect 1 0 39 10)(font "Arial" (font_size 6)))
	(text "S" (rect 90 0 95 17)(font "Intel Clear" ))
	(pt 0 8)
	(drawing
		(line (pt 0 8)(pt 52 8))
		(line (pt 52 4)(pt 78 4))
		(line (pt 52 12)(pt 78 12))
		(line (pt 52 12)(pt 52 4))
		(line (pt 78 4)(pt 82 8))
		(line (pt 82 8)(pt 78 12))
		(line (pt 78 12)(pt 82 8))
	)
)
(symbol
	(rect 208 80 336 192)
	(text "MUXCOND" (rect 5 0 60 12)(font "Arial" ))
	(text "inst" (rect 8 96 25 108)(font "Arial" ))
	(port
		(pt 0 32)
		(input)
		(text "E0" (rect 0 0 12 12)(font "Arial" ))
		(text "E0" (rect 21 27 33 39)(font "Arial" ))
		(line (pt 0 32)(pt 16 32))
	)
	(port
		(pt 0 48)
		(input)
		(text "E1" (rect 0 0 12 12)(font "Arial" ))
		(text "E1" (rect 21 43 33 55)(font "Arial" ))
		(line (pt 0 48)(pt 16 48))
	)
	(port
		(pt 0 64)
		(input)
		(text "SEL0" (rect 0 0 25 12)(font "Arial" ))
		(text "SEL0" (rect 21 59 46 71)(font "Arial" ))
		(line (pt 0 64)(pt 16 64))
	)
	(port
		(pt 128 32)
		(output)
		(text "S" (rect 0 0 7 12)(font "Arial" ))
		(text "S" (rect 102 27 109 39)(font "Arial" ))
		(line (pt 128 32)(pt 112 32))
	)
	(drawing
		(rectangle (rect 16 16 112 96))
	)
)
(symbol
	(rect 176 296 304 408)
	(text "MUXCOND" (rect 5 0 60 12)(font "Arial" ))
	(text "inst1" (rect 8 96 30 113)(font "Intel Clear" ))
	(port
		(pt 0 32)
		(input)
		(text "E0" (rect 0 0 12 12)(font "Arial" ))
		(text "E0" (rect 21 27 33 39)(font "Arial" ))
		(line (pt 0 32)(pt 16 32))
	)
	(port
		(pt 0 48)
		(input)
		(text "E1" (rect 0 0 12 12)(font "Arial" ))
		(text "E1" (rect 21 43 33 55)(font "Arial" ))
		(line (pt 0 48)(pt 16 48))
	)
	(port
		(pt 0 64)
		(input)
		(text "SEL0" (rect 0 0 25 12)(font "Arial" ))
		(text "SEL0" (rect 21 59 46 71)(font "Arial" ))
		(line (pt 0 64)(pt 16 64))
	)
	(port
		(pt 128 32)
		(output)
		(text "S" (rect 0 0 7 12)(font "Arial" ))
		(text "S" (rect 102 27 109 39)(font "Arial" ))
		(line (pt 128 32)(pt 112 32))
	)
	(drawing
		(rectangle (rect 16 16 112 96))
	)
)
(symbol
	(rect 464 192 592 304)
	(text "MUXCOND" (rect 5 0 60 12)(font "Arial" ))
	(text "inst2" (rect 8 96 30 113)(font "Intel Clear" ))
	(port
		(pt 0 32)
		(input)
		(text "E0" (rect 0 0 12 12)(font "Arial" ))
		(text "E0" (rect 21 27 33 39)(font "Arial" ))
		(line (pt 0 32)(pt 16 32))
	)
	(port
		(pt 0 48)
		(input)
		(text "E1" (rect 0 0 12 12)(font "Arial" ))
		(text "E1" (rect 21 43 33 55)(font "Arial" ))
		(line (pt 0 48)(pt 16 48))
	)
	(port
		(pt 0 64)
		(input)
		(text "SEL0" (rect 0 0 25 12)(font "Arial" ))
		(text "SEL0" (rect 21 59 46 71)(font "Arial" ))
		(line (pt 0 64)(pt 16 64))
	)
	(port
		(pt 128 32)
		(output)
		(text "S" (rect 0 0 7 12)(font "Arial" ))
		(text "S" (rect 102 27 109 39)(font "Arial" ))
		(line (pt 128 32)(pt 112 32))
	)
	(drawing
		(rectangle (rect 16 16 112 96))
	)
)
(connector
	(pt 384 472)
	(pt 464 472)
)
(connector
	(pt 464 472)
	(pt 464 256)
)
(connector
	(pt 152 240)
	(pt 168 240)
)
(connector
	(pt 168 360)
	(pt 176 360)
)
(connector
	(pt 304 328)
	(pt 376 328)
)
(connector
	(pt 376 240)
	(pt 376 328)
)
(connector
	(pt 376 240)
	(pt 464 240)
)
(connector
	(pt 176 136)
	(pt 224 136)
)
(connector
	(pt 176 120)
	(pt 208 120)
)
(connector
	(pt 168 144)
	(pt 208 144)
)
(connector
	(pt 464 224)
	(pt 464 112)
)
(connector
	(pt 208 120)
	(pt 208 112)
)
(connector
	(pt 224 136)
	(pt 224 128)
)
(connector
	(pt 224 128)
	(pt 208 128)
)
(connector
	(pt 168 144)
	(pt 168 240)
)
(connector
	(pt 168 240)
	(pt 168 360)
)
(connector
	(pt 336 112)
	(pt 464 112)
)
(junction (pt 168 240))
