{
	"partitions" : [
		{
			"name" : "Top",
			"pins" : [
				{
					"name" : "BasculeOut",
					"strict" : false
				},
				{
					"name" : "OutCompteur[2]",
					"strict" : false
				},
				{
					"name" : "OutCompteur[1]",
					"strict" : false
				},
				{
					"name" : "OutCompteur[0]",
					"strict" : false
				},
				{
					"name" : "sortie[5]",
					"strict" : false
				},
				{
					"name" : "sortie[4]",
					"strict" : false
				},
				{
					"name" : "sortie[3]",
					"strict" : false
				},
				{
					"name" : "sortie[2]",
					"strict" : false
				},
				{
					"name" : "sortie[1]",
					"strict" : false
				},
				{
					"name" : "sortie[0]",
					"strict" : false
				},
				{
					"name" : "ClockBascule",
					"strict" : false
				},
				{
					"name" : "Clock50MHz",
					"strict" : false
				}
			]
		}
	]
}