{
	"partitions" : [
		{
			"name" : "Top",
			"pins" : [
				{
					"name" : "compt_sortie[0]",
					"strict" : false
				},
				{
					"name" : "compt_sortie[1]",
					"strict" : false
				},
				{
					"name" : "compt_sortie[2]",
					"strict" : false
				},
				{
					"name" : "compt_sortie[3]",
					"strict" : false
				},
				{
					"name" : "compt_sortie[4]",
					"strict" : false
				},
				{
					"name" : "clk",
					"strict" : false
				}
			]
		}
	]
}